Name,BirthDate,Age,Sex,Equipment,Division,BodyweightKg,WeightClassKg,Squat1Kg,Squat2Kg,Squat3Kg,Best3SquatKg,Bench1Kg,Bench2Kg,Bench3Kg,Best3BenchKg,Deadlift1Kg,Deadlift2Kg,Deadlift3Kg,Best3DeadliftKg,TotalKg,Place,Event,Team,Tested
Carolyn Dickson,,55,F,Raw,F_MR_4_APF,65.5,67.5,105,-110,110,110,77.5,80,82.5,82.5,122.5,127.5,137.5,137.5,330,1,SBD,Fit 413,
Laura Kontos,,51,F,Raw,F_MR_3_AAPF,98.6,90+,-125,125,-137.5,125,57.5,62.5,67.5,67.5,135,150,157.5,157.5,350,1,SBD,X Factor Athletic Performance,Yes
Laura Kontos,,51,F,Raw,F_MR_3_APF,98.6,90+,-125,125,-137.5,125,57.5,62.5,67.5,67.5,135,150,157.5,157.5,350,1,SBD,X Factor Athletic Performance,
Elisabeth Tedeschi,,44,F,Wraps,F_MCR_1_APF,80.3,82.5,145,157.5,167.5,167.5,85,92.5,-97.5,92.5,162.5,177.5,-182.5,177.5,437.5,1,SBD,Perfect Storm Fitness,
Tara Hutsell,,41,F,Wraps,F_MCR_1_APF,81.6,82.5,145,160,167.5,167.5,70,77.5,-82.5,77.5,162.5,172.5,185,185,430,2,SBD,Brit's Brothers,
Helen Romero,,30,F,Multi-ply,F_OEM_APF,80.3,82.5,222.5,250,-272.5,250,107.5,-125,125,125,187.5,207.5,-220,207.5,582.5,1,SBD,Spud Inc.,
Stephanie Bagwell,,26,F,Wraps,F_OCR_AAPF,63.8,67.5,-92.5,92.5,105,105,47.5,52.5,-55,52.5,102.5,125,-135,125,282.5,1,SBD,McLeod Fitness,Yes
Tara Hutsell,,41,F,Wraps,F_OCR_APF,81.6,82.5,145,160,167.5,167.5,70,77.5,-82.5,77.5,162.5,172.5,185,185,430,1,SBD,Brit's Brothers,
Erica Thieman,,38,F,Raw,F_OR_AAPF,124.8,90+,132.5,135,137.5,137.5,85,92.5,95,95,175,180,-185,180,412.5,1,SBD,Garage Gym,Yes
Carolyn Dickson,,55,F,Raw,F_OR_APF,65.5,67.5,105,-110,110,110,77.5,80,82.5,82.5,122.5,127.5,137.5,137.5,330,1,SBD,Fit 413,
Ellen Hollmann,,34,F,Raw,F_OR_APF,66.9,67.5,47.5,55,62.5,62.5,27.5,35,-40,35,67.5,75,85,85,182.5,2,SBD,Rhino's Gym,
Chelse Zamorano,,27,F,Raw,F_OR_APF,83.5,90,90,97.5,107.5,107.5,57.5,62.5,67.5,67.5,135,145,152.5,152.5,327.5,1,SBD,Rhino's Gym,
Ray Sanders,,65,M,Wraps,M_MCR_6_APF,113.6,125,125,-135,135,135,102.5,107.5,112.5,112.5,145,185,,185,432.5,1,SBD,Muv Fitness,
Karl Tillman,,57,M,Multi-ply,M_MEM_4_APF,122.6,125,182.5,,,182.5,152.5,185,,185,182.5,250,272.5,272.5,640,1,SBD,Spud Inc.,
Steven Taylor,,45,M,Raw,M_MR_2_APF,165.1,140+,215,237.5,245,245,-155,170,-182.5,170,262.5,280,292.5,292.5,707.5,1,SBD,Low Country Strength,
William Krenkler III,,35,M,Wraps,M_SCR_APF,87.3,90,165,185,202.5,202.5,100,-105,,100,170,-182.5,182.5,182.5,485,1,SBD,Low Country Strength,
Chris Evans,,33,M,Wraps,M_SCR_APF,98.5,100,242.5,-260,267.5,267.5,197.5,-210,-210,197.5,242.5,260,265,265,730,1,SBD,Spud Inc.,
Christopher Carmack,,38,M,Wraps,M_SCR_APF,105.9,110,185,192.5,215,215,125,137.5,150,150,165,185,205,205,570,1,SBD,Spud Inc.,
Josh Chandler,,37,M,Wraps,M_SCR_APF,120,125,300,-322.5,-325,300,200,215,-227.5,215,227.5,240,-245,240,755,1,SBD,Perfect Storm Fitness,
Chanon Mingledorff,,21,M,Wraps,M_JCR_AAPF,87.9,90,165,172.5,182.5,182.5,-120,125,-132.5,125,205,215,227.5,227.5,535,1,SBD,Primal Powerlifting,Yes
Justen Oehlerking,,21,M,Wraps,M_JCR_APF,81.8,82.5,170,177.5,185,185,127.5,135,140,140,210,217.5,220,220,545,1,SBD,Rowe Strong,
Emmanuel Keezer,,22,M,Wraps,M_JCR_APF,175.2,140+,247.5,-265,-265,247.5,147.5,160,170,170,205,220,230,230,647.5,1,SBD,Raw Fitness,
Kirby McCall,,28,M,Multi-ply,M_OEM_APF,87.4,90,227.5,250,272.5,272.5,165,-182.5,-182.5,165,145,172.5,197.5,197.5,635,1,SBD,Billy's Garage,
Jordan Fender,,26,M,Multi-ply,M_OEM_APF,87,90,-352.5,352.5,370,370,262.5,-275,275,275,-295,-295,-295,,,DQ,SBD,Super Flex Gym,
Chris Murray #10,,32,M,Multi-ply,M_OEM_APF,98.7,100,-320,342.5,,342.5,237.5,-252.5,252.5,252.5,297.5,320,,320,915,1,SBD,Winners Gym,
Anthony Lamont,,30,M,Multi-ply,M_OEM_APF,98.7,100,350,-365,,350,245,260,-272.5,260,287.5,302.5,,302.5,912.5,2,SBD,Garage Gym,
David Kemp,,31,M,Multi-ply,M_OEM_APF,108.2,110,-342.5,342.5,375,375,-225,242.5,255,255,250,280,307.5,307.5,937.5,1,SBD,Winners Gym,
William Hurdle,,34,M,Multi-ply,M_OEM_APF,119.6,125,-365,365,-387.5,365,-227.5,227.5,250,250,250,277.5,295,295,910,1,SBD,Winners Gym,
Nathan Hardy,,32,M,Multi-ply,M_OEM_APF,122.9,125,-410,,,,-295,,,,,,,,,DQ,SBD,Super Flex Gym,
Stephen Slater #1,,30,M,Multi-ply,M_OEM_APF,128.9,140,400,432.5,455,455,297.5,-320,-320,297.5,265,292.5,312.5,312.5,1065,1,SBD,Slater Strength,
Justin Ridenhour,,36,M,Multi-ply,M_OEM_APF,133.3,140,-365,-365,,,-97.5,,,,,,,,,DQ,SBD,Big Country Barbell,
Matt Kingdon,,45,M,Multi-ply,M_OEM_APF,125.2,140,-272.5,,,,-112.5,,,,,,,,,DQ,SBD,Low Country Strength,
Ben Fields,,39,M,Multi-ply,M_OEM_APF,130.4,140,-382.5,-400,-402.5,,-237.5,,,,,,,,,DQ,SBD,Spud Inc.,
Dustin Raymer,,33,M,Wraps,M_OCR_AAPF,88.5,90,247.5,260,265,265,157.5,165,-170,165,260,280,,280,710,1,SBD,Elite Legacy Fitness,Yes
Chanon Mingledorff,,21,M,Wraps,M_OCR_AAPF,87.9,90,165,172.5,182.5,182.5,-120,125,-132.5,125,205,215,227.5,227.5,535,2,SBD,Primal Powerlifting,Yes
Dustin McRae,,28,M,Wraps,M_OCR_AAPF,86.6,90,135,160,175,175,102.5,-112.5,-112.5,102.5,212.5,227.5,-242.5,227.5,505,3,SBD,McLeod Fitness,Yes
James Rowe,,26,M,Wraps,M_OCR_AAPF,99.5,100,262.5,272.5,277.5,277.5,155,162.5,165,165,257.5,272.5,-280,272.5,715,1,SBD,Primal Powerlifting,Yes
Jerry Schuman,,26,M,Wraps,M_OCR_AAPF,118,125,-230,230,232.5,232.5,147.5,155,-165,155,247.5,252.5,-257.5,252.5,640,1,SBD,Primal Powerlifting,Yes
Ryan Newman,,34,M,Wraps,M_OCR_AAPF,139.6,140,155,172.5,-187.5,172.5,102.5,107.5,-115,107.5,160,172.5,182.5,182.5,462.5,1,SBD,Primal Powerlifting,Yes
Justen Oehlerking,,21,M,Wraps,M_OCR_APF,81.8,82.5,170,177.5,185,185,127.5,135,140,140,210,217.5,220,220,545,1,SBD,Rowe Strong,
Chris Evans,,33,M,Wraps,M_OCR_APF,98.5,100,242.5,-260,267.5,267.5,197.5,-210,-210,197.5,242.5,260,265,265,730,1,SBD,Spud Inc.,
Hampton Pelton,,28,M,Wraps,M_OCR_APF,97.5,100,272.5,285,-300,285,150,160,-167.5,160,280,-295,,280,725,2,SBD,Central State Crossfit,
James Rowe,,26,M,Wraps,M_OCR_APF,99.5,100,262.5,272.5,277.5,277.5,155,162.5,165,165,257.5,272.5,-280,272.5,715,3,SBD,Primal Powerlifting,
Taylor Bennett #1,,28,M,Wraps,M_OCR_APF,108.4,110,-235,237.5,255,255,-177.5,190,-197.5,190,272.5,295,315,315,760,1,SBD,24/7 Health & Fitness,
Joshua Tebbs,,47,M,Wraps,M_OCR_APF,108.7,110,135,147.5,162.5,162.5,132.5,-140,-145,132.5,175,182.5,190,190,485,2,SBD,Spud Inc.,
Tommy Hinson,,30,M,Wraps,M_OCR_APF,121,125,230,250,-272.5,250,197.5,210,-217.5,210,-230,247.5,272.5,272.5,732.5,1,SBD,Spud Inc.,
Jerry Schuman,,26,M,Wraps,M_OCR_APF,118,125,-230,230,232.5,232.5,147.5,155,-165,155,247.5,252.5,-257.5,252.5,640,2,SBD,Primal Powerlifting,
Chris Jenkins #1,,38,M,Wraps,M_OCR_APF,139,140,307.5,330,352.5,352.5,185,197.5,202.5,202.5,287.5,307.5,-322.5,307.5,862.5,1,SBD,Spud Inc.,
Ryan Newman,,34,M,Wraps,M_OCR_APF,139.6,140,155,172.5,-187.5,172.5,102.5,107.5,-115,107.5,160,172.5,182.5,182.5,462.5,2,SBD,Primal Powerlifting,
Brian Pittman,,54,M,Raw,M_SMR_3_AAPF,86.2,90,100,-102.5,-102.5,100,85,95,-100,95,110,120,125,125,320,1,SBD,Ironman Barbell,Yes
Jackson Ware,,25,M,Raw,M_SOR_AAPF,87.1,90,82.5,92.5,102.5,102.5,62.5,65,-75,65,127.5,142.5,155,155,322.5,1,SBD,Ironman Barbell,Yes
Cameron Neely,,30,M,Raw,M_SOR_AAPF,112.6,125,137.5,142.5,-160,142.5,62.5,65,-77.5,65,92.5,105,115,115,322.5,1,SBD,Ironman Barbell,Yes
Josh Myers,,32,M,Raw,M_SOR_AAPF,146.3,140+,165,175,192.5,192.5,90,100,107.5,107.5,150,167.5,172.5,172.5,472.5,1,SBD,Ironman Barbell,Yes
Brandon Stone,,28,M,Raw,M_OR_APF,120.5,125,265,282.5,-295,282.5,152.5,187.5,192.5,192.5,220,,,220,695,1,SBD,Low Country Strength,
Larry Jenkins,,37,M,Raw,M_OR_APF,122.2,125,220,-222.5,,220,155,160,-170,160,255,272.5,295,295,675,2,SBD,Anytime Fitness,
Jacob Burger,,24,M,Raw,M_OR_APF,155.8,140+,207.5,217.5,-227.5,217.5,125,135,-147.5,135,227.5,250,260,260,612.5,1,SBD,Rhino's Gym,
Andrew Painter,,16,M,Multi-ply,M_TEM_2_APF,94.3,100,,,,,-197.5,197.5,-205,197.5,,,,,197.5,1,B,Pro Fitness Gym,
