Division,WeightClassKg,Place,Name,Team,BodyweightKg,Best3SquatKg,Best3BenchKg,Best3DeadliftKg,TotalKg,Equipment,Event,Sex
Boys,51.71,1,Herquin Chable,Channelview,50.98,111.13,61.23,142.88,315.25,Single-ply,SBD,M
Boys,51.71,2,Eddie Taylor,La Porte,51.17,108.86,70.31,113.4,292.57,Single-ply,SBD,M
Boys,51.71,3,Ayala Crisoforo,Pasadena Rayburn,49.03,90.72,56.7,120.2,267.62,Single-ply,SBD,M
Boys,51.71,4,Paul Bass,Katy Mayde Creek,51.44,111.13,45.36,111.13,267.62,Single-ply,SBD,M
Boys,59.87,1,Matthew Riddick,Crosby,55.88,127.01,81.65,154.22,362.87,Single-ply,SBD,M
Boys,55.79,2,Dominic Monsivaiz,Dickinson,55.43,140.61,74.84,140.61,356.07,Single-ply,SBD,M
Boys,55.79,3,Eric Flores,Katy Mayde Creek,55.43,124.74,74.84,145.15,344.73,Single-ply,SBD,M
Boys,55.79,4,Brandon Jordan,Dickinson,55.47,104.33,70.31,115.67,290.3,Single-ply,SBD,M
Boys,55.79,5,Jimmy Coleman,La Marque,54.75,106.59,63.5,102.06,272.16,Single-ply,SBD,M
Boys,59.87,1,Cecilio Hernandez,Dickinson,59.6,167.83,106.59,165.56,439.98,Single-ply,SBD,M
Boys,67.13,2,Donovan Lee,Katy Mayde Creek,59.96,147.42,97.52,183.7,428.64,Single-ply,SBD,M
Boys,59.87,3,Brandon Martinez,Dickinson,59.51,147.42,90.72,142.88,381.02,Single-ply,SBD,M
Boys,67.13,4,Dylan Billiot,La Marque,60.1,136.08,77.11,145.15,358.34,Single-ply,SBD,M
Boys,59.87,5,Alberto Pineda,Dayton,59.65,124.74,68.04,140.61,333.39,Single-ply,SBD,M
Boys,59.87,6,Chen Pham,Dickinson,56.38,124.74,61.23,136.08,322.05,Single-ply,SBD,M
Boys,67.13,1,Alec DeLeon,Dickinson,66.86,226.8,115.67,201.85,544.31,Single-ply,SBD,M
Boys,67.13,2,Gerald Johnson,La Marque,64.5,163.29,97.52,174.63,435.45,Single-ply,SBD,M
Boys,67.13,3,William Williams,Channelview,61.37,156.49,74.84,161.03,392.36,Single-ply,SBD,M
Boys,74.84,4,Brett Russell,Katy Mayde Creek,67.27,142.88,88.45,158.76,390.09,Single-ply,SBD,M
Boys,67.13,5,Ricky Delacerda,Dickinson,65.59,131.54,81.65,163.29,376.48,Single-ply,SBD,M
Boys,67.13,6,Dequan Jones,La Marque,61.33,124.74,92.99,151.95,369.68,Single-ply,SBD,M
Boys,67.13,7,Gilberto Pellaguad,Pasadena Rayburn,62.91,145.15,81.65,138.35,365.14,Single-ply,SBD,M
Boys,67.13,8,Corey Holmes,La Marque,66.81,124.74,63.5,140.61,328.85,Single-ply,SBD,M
Boys,67.13,9,Garrett Cowey,Pasadena Memorial,66.9,104.33,68.04,111.13,283.5,Single-ply,SBD,M
Boys,74.84,1,Calvin Laskey,Katy Mayde Creek,72.12,210.92,140.61,238.14,589.67,Single-ply,SBD,M
Boys,74.84,2,Trey Vaughans,Dickinson,74.21,195.04,129.27,181.44,505.76,Single-ply,SBD,M
Boys,74.84,3,Daniel Douglas,Dayton,74.66,172.37,122.47,204.12,498.95,Single-ply,SBD,M
Boys,74.84,4,Victor De La Garza,Brookshire Royal,68.99,192.78,108.86,190.51,492.15,Single-ply,SBD,M
Boys,74.84,5,Marcel Foster,Dayton,74.16,174.63,102.06,197.31,474,Single-ply,SBD,M
Boys,74.84,6,Nefi Hernandez,Texas City,69.31,190.51,108.86,151.95,451.32,Single-ply,SBD,M
Boys,74.84,7,Lance Cole,Crosby,74.66,170.1,113.4,151.95,435.45,Single-ply,SBD,M
Boys,74.84,8,Anthony Wright,La Marque,74.66,158.76,92.99,174.63,426.38,Single-ply,SBD,M
Boys,74.84,9,Lane Pfieffer,La Porte,70.31,102.06,104.33,163.29,369.68,Single-ply,SBD,M
Boys,74.84,10,Damian Velasquez,Pasadena Memorial,69.22,92.99,61.23,136.08,290.3,Single-ply,SBD,M
Boys,74.84,DQ,Kevin Busby,La Porte,72.35,,,,,Single-ply,SBD,M
Boys,82.1,1,Thomas Bridges,Dickinson,79.7,215.46,147.42,215.46,578.33,Single-ply,SBD,M
Boys,82.1,2,Vernon Allen,Crosby,79.7,233.6,117.93,204.12,555.65,Single-ply,SBD,M
Boys,82.1,3,Chris Jefferson,Channelview,80.38,226.8,120.2,204.12,551.11,Single-ply,SBD,M
Boys,82.1,4,Brandon McBride,Dayton,77.93,190.51,120.2,204.12,514.83,Single-ply,SBD,M
Boys,82.1,5,Dodi Vasquez,Dickinson,76.02,183.7,124.74,185.97,494.42,Single-ply,SBD,M
Boys,82.1,6,LaKeith Brown,Crosby,79.51,181.44,115.67,188.24,485.34,Single-ply,SBD,M
Boys,82.1,7,Ralph Anderson,Texas City,82.05,183.7,117.93,183.7,485.34,Single-ply,SBD,M
Boys,82.1,8,Trevor Larkin,Crosby,80.06,174.63,124.74,167.83,467.2,Single-ply,SBD,M
Boys,82.1,9,David Marshall,Dayton,79.97,163.29,92.99,183.7,439.98,Single-ply,SBD,M
Boys,82.1,10,Brad Neal,Dayton,78.34,156.49,102.06,170.1,428.64,Single-ply,SBD,M
Boys,82.1,11,Davont Holt,Channelview,76.79,170.1,97.52,158.76,426.38,Single-ply,SBD,M
Boys,82.1,12,Carlos Garay,Pasadena Memorial,78.88,163.29,104.33,158.76,426.38,Single-ply,SBD,M
Boys,82.1,13,Zach Bowen,La Porte,80.42,142.88,99.79,147.42,390.09,Single-ply,SBD,M
Boys,82.1,14,Jalen Williams,Dickinson,77.79,142.88,61.23,163.29,367.41,Single-ply,SBD,M
Boys,82.1,15,David Mejia,Pasadena Rayburn,76.11,151.95,61.23,145.15,358.34,Single-ply,SBD,M
Boys,89.81,DQ,Tre'Vaughn Henderson,Katy Mayde Creek,82.24,142.88,,,,Single-ply,SBD,M
Boys,89.81,1,Jalen Hurts,Channelview,84.19,213.19,113.4,226.8,553.38,Single-ply,SBD,M
Boys,89.81,2,Darrell Fobbs,Brookshire Royal,89.09,185.97,99.79,217.72,503.49,Single-ply,SBD,M
Boys,89.81,3,James Jacobs #2,La Porte,85.5,185.97,120.2,190.51,496.68,Single-ply,SBD,M
Boys,89.81,4,Cleaon Jolly,Dickinson,88.59,163.29,92.99,167.83,424.11,Single-ply,SBD,M
Boys,89.81,5,Chance Rogers,Dayton,83.14,151.95,97.52,151.95,401.43,Single-ply,SBD,M
Boys,89.81,6,Javier Picon,Katy Mayde Creek,89.72,142.88,92.99,142.88,378.75,Single-ply,SBD,M
Boys,89.81,7,Connor Culter,Dickinson,86.36,124.74,79.38,147.42,351.53,Single-ply,SBD,M
Boys,89.81,8,Trevor Anderson,Dickinson,88.86,124.74,79.38,142.88,347,Single-ply,SBD,M
Boys,99.79,1,Francios Bonilla,Texas City,96.62,231.33,154.22,219.99,605.55,Single-ply,SBD,M
Boys,99.79,2,Jason Kline,La Porte,97.16,219.99,127.01,226.8,573.79,Single-ply,SBD,M
Boys,99.79,3,Jorge Oviedo,Pasadena Memorial,99.65,183.7,102.06,217.72,503.49,Single-ply,SBD,M
Boys,99.79,4,Zack Kapalski,Dayton,97.7,188.24,111.13,188.24,487.61,Single-ply,SBD,M
Boys,99.79,5,Eric Mexicano,Pasadena Memorial,94.89,142.88,115.67,197.31,455.86,Single-ply,SBD,M
Boys,99.79,6,Tarik Cooper,Texas City,94.98,174.63,122.47,154.22,451.32,Single-ply,SBD,M
Boys,99.79,7,Steven Messenger,Pasadena Rayburn,91.49,158.76,90.72,195.04,444.52,Single-ply,SBD,M
Boys,99.79,8,Jason Herrington,La Porte,91.49,158.76,102.06,174.63,435.45,Single-ply,SBD,M
Boys,99.79,9,Tristan Anderson,Dickinson,94.3,165.56,81.65,176.9,424.11,Single-ply,SBD,M
Boys,99.79,10,Sam Cepeda,Pasadena Memorial,97.39,131.54,95.25,170.1,396.89,Single-ply,SBD,M
Boys,99.79,11,Izaah Washington,La Porte,96.89,142.88,92.99,158.76,394.63,Single-ply,SBD,M
Boys,99.79,12,Michael Onyeugo,Katy Mayde Creek,98.97,142.88,81.65,154.22,378.75,Single-ply,SBD,M
Boys,109.77,1,Kaylond North,Dickinson,109.18,285.76,151.95,244.94,682.66,Single-ply,SBD,M
Boys,124.74,2,Anietie Etuk,Dickinson,109.86,238.14,142.88,254.01,635.03,Single-ply,SBD,M
Boys,109.77,3,Trey Taylor,Brookshire Royal,107.05,233.6,147.42,208.65,589.67,Single-ply,SBD,M
Boys,109.77,4,Clayton Calhoun,La Porte,108.09,204.12,124.74,199.58,528.44,Single-ply,SBD,M
Boys,109.77,5,Jared Reedy,Dickinson,108.18,215.46,117.93,183.7,517.1,Single-ply,SBD,M
Boys,109.77,6,Jordan Trahan,Dayton,109.63,210.92,113.4,188.24,512.56,Single-ply,SBD,M
Boys,109.77,7,Brandon Clay,Dickinson,104.33,190.51,136.08,165.56,492.15,Single-ply,SBD,M
Boys,109.77,8,Tyler Boudreaux,La Porte,102.51,188.24,120.2,170.1,478.54,Single-ply,SBD,M
Boys,109.77,9,Marques Coleman,Dickinson,101.33,208.65,113.4,154.22,476.27,Single-ply,SBD,M
Boys,109.77,10,Livan Lopez,Dickinson,103.92,174.63,108.86,181.44,464.93,Single-ply,SBD,M
Boys,109.77,11,Michael Jaurez,Pasadena Rayburn,102.42,172.37,113.4,172.37,458.13,Single-ply,SBD,M
Boys,109.77,12,Rafael Carrillo,Katy Mayde Creek,109.5,181.44,102.06,165.56,449.06,Single-ply,SBD,M
Boys,109.77,13,Gavan Cooper,Channelview,106.55,156.49,97.52,151.95,405.97,Single-ply,SBD,M
Boys,124.74,1,Josh Opiela,Crosby,123.74,294.84,183.7,233.6,712.14,Single-ply,SBD,M
Boys,124.74,2,Ernesto Reales,Dickinson,121.83,272.16,138.35,215.46,625.96,Single-ply,SBD,M
Boys,124.74+,3,Javier Vega,Pasadena Rayburn,124.83,226.8,122.47,219.99,569.26,Single-ply,SBD,M
Boys,124.74,4,Sean Shazhad,Katy Mayde Creek,120.66,226.8,127.01,208.65,562.45,Single-ply,SBD,M
Boys,124.74,5,Malik Essilfie,Katy Mayde Creek,115.94,238.14,124.74,197.31,560.19,Single-ply,SBD,M
Boys,124.74+,6,Keithon Herring,Texas City,124.78,226.8,136.08,190.51,553.38,Single-ply,SBD,M
Boys,124.74,7,Keyshawn Pettieway,Crosby,117.34,181.44,136.08,185.97,503.49,Single-ply,SBD,M
Boys,124.74,8,James Brock,Katy Mayde Creek,114.31,183.7,124.74,181.44,489.88,Single-ply,SBD,M
Boys,124.74,9,Alex Hernandez #15,Pasadena Rayburn,124.1,172.37,117.93,185.97,476.27,Single-ply,SBD,M
Boys,124.74,10,Rene Rodriguez,Crosby,120.16,170.1,120.2,176.9,467.2,Single-ply,SBD,M
Boys,124.74,11,Tim Thomas,Pasadena Memorial,119.79,181.44,90.72,192.78,464.93,Single-ply,SBD,M
Boys,124.74,12,Aymiel Flemming,La Marque,116.98,158.76,127.01,158.76,444.52,Single-ply,SBD,M
Boys,124.74,13,Diego Zamudio,Pasadena Memorial,120.7,156.49,106.59,170.1,433.18,Single-ply,SBD,M
Boys,124.74,14,Miguel Reyes,Pasadena Memorial,124.69,158.76,102.06,170.1,430.91,Single-ply,SBD,M
Boys,124.74,DQ,Adrein Burton,Texas City,121.47,249.48,,,,Single-ply,SBD,M
Boys,124.74,DQ,Andrew Velasco,Katy Mayde Creek,118.02,215.46,136.08,,,Single-ply,SBD,M
Boys,124.74+,1,Alonzo Crittendon,Dickinson,141.29,328.85,145.15,260.82,734.82,Single-ply,SBD,M
Boys,124.74+,2,Chance Harmanson,Dickinson,139.03,290.3,163.29,226.8,680.39,Single-ply,SBD,M
Boys,124.74+,3,Darin Slater,Dickinson,149.78,272.16,140.61,215.46,628.23,Single-ply,SBD,M
Boys,124.74+,4,Dwayne Taylor #2,Texas City,133.4,233.6,161.03,219.99,614.62,Single-ply,SBD,M
Boys,124.74+,5,Matthew Gregory,Crosby,136.71,204.12,122.47,222.26,548.85,Single-ply,SBD,M
Boys,124.74+,6,Chance Cummings,Dickinson,136.8,204.12,122.47,222.26,548.85,Single-ply,SBD,M
Boys,124.74+,7,Keenan Murphy,Crosby,129.95,188.24,129.27,215.46,532.97,Single-ply,SBD,M
Boys,124.74+,8,Deyvn Billiot,La Marque,128.96,176.9,102.06,174.63,453.59,Single-ply,SBD,M
Boys,124.74+,9,Bryan Hays,La Porte,135.53,145.15,113.4,154.22,412.77,Single-ply,SBD,M
Boys,124.74+,10,Kevin Pena,Pasadena Rayburn,129.64,129.27,97.52,147.42,374.21,Single-ply,SBD,M
