Division,WeightClassKg,Place,Name,Team,BodyweightKg,Best3SquatKg,Best3BenchKg,Best3DeadliftKg,TotalKg,Equipment,Event,Sex,BirthDate
Girls,44.23,1,Faith Quiroz,Ozona,42.64,95.25,43.09,111.13,249.48,Single-ply,SBD,F,
Girls,44.23,2,Angelica Aranda,Eldorado,44.04,83.91,43.09,95.25,222.26,Single-ply,SBD,F,
Girls,44.23,3,Esly Trinidad,Iraan,41.5,61.23,29.48,81.65,172.37,Single-ply,SBD,F,
Girls,44.23,DQ,Alexa Mendoza,Rocksprings,35.92,27.22,,,,Single-ply,SBD,F,
Girls,47.85,1,Andrea Cervantes,Big Lake Reagan County,46.27,129.27,54.43,120.2,303.91,Single-ply,SBD,F,
Girls,47.85,2,Laisha Ortiz,Iraan,44.81,47.63,24.95,68.04,140.61,Single-ply,SBD,F,
Girls,51.94,1,Myranda Guerrero,Eldorado,51.62,136.08,63.5,117.93,317.51,Single-ply,SBD,F,
Girls,51.94,2,Sissy Coronado,Eldorado,50.48,97.52,61.23,106.59,265.35,Single-ply,SBD,F,
Girls,51.94,DQ,Anahi Narvaez,Big Lake Reagan County,49.9,113.4,,,,Single-ply,SBD,F,
Girls,56.02,1,Whitney Halfmann,Miles,54.39,111.13,61.23,127.01,299.37,Single-ply,SBD,F,
Girls,56.02,2,Alejandra Alegria,Eldorado,54.48,113.4,58.97,117.93,290.3,Single-ply,SBD,F,
Girls,56.02,3,Leslie Alegria,Eldorado,54.34,95.25,47.63,108.86,251.74,Single-ply,SBD,F,
Girls,60.1,1,Logan Prater,Eldorado,59.69,136.08,58.97,142.88,337.93,Single-ply,SBD,F,
Girls,60.1,2,Dasani Rios,Eldorado,58.2,113.4,65.77,131.54,310.71,Single-ply,SBD,F,
Girls,60.1,3,Anabel Villarruel,Miles,59.47,111.13,52.16,136.08,299.37,Single-ply,SBD,F,
Girls,60.1,4,Esperanza Castillo,Ozona,59.69,113.4,63.5,122.47,299.37,Single-ply,SBD,F,
Girls,60.1,5,Victoria Cerna,Ozona,57.2,117.93,54.43,122.47,294.84,Single-ply,SBD,F,
Girls,60.1,6,Baylee Plumley,Junction,59.69,113.4,65.77,115.67,294.84,Single-ply,SBD,F,
Girls,60.1,7,Gissele Holguin,Big Spring,58.56,122.47,47.63,120.2,290.3,Single-ply,SBD,F,
Girls,60.1,8,Zoey Chavez,Big Lake Reagan County,58.97,104.33,52.16,108.86,265.35,Single-ply,SBD,F,
Girls,60.1,9,Heidi Estrada,Eldorado,58.29,99.79,47.63,108.86,256.28,Single-ply,SBD,F,
Girls,60.1,10,Valerie Hernandez,Big Spring,58.2,90.72,40.82,113.4,244.94,Single-ply,SBD,F,
Girls,60.1,DQ,Abygail Narvaez,Big Lake Reagan County,58.97,124.74,,,,Single-ply,SBD,F,
Girls,60.1,DQ,Reaghan Gonzalez,Ozona,57.83,104.33,,,,Single-ply,SBD,F,
Girls,67.36,1,Perla Contreras,Eldorado,66.63,136.08,68.04,129.27,333.39,Single-ply,SBD,F,
Girls,67.36,2,Nayeli Barrera,Rocksprings,60.33,127.01,72.57,104.33,303.91,Single-ply,SBD,F,
Girls,67.36,3,Alexa Schwertner,Miles,64.55,102.06,63.5,102.06,267.62,Single-ply,SBD,F,
Girls,67.36,4,Alandra Juarez,Big Spring,65.77,86.18,45.36,102.06,233.6,Single-ply,SBD,F,
Girls,67.36,5,Melanie Aguilar,Big Spring,63.28,92.99,36.29,86.18,215.46,Single-ply,SBD,F,
Girls,75.07,1,Nyomi Aranda,Eldorado,74.71,151.95,72.57,136.08,360.61,Single-ply,SBD,F,
Girls,75.07,2,Kiarra Telles,Junction,68.27,124.74,90.72,127.01,342.46,Single-ply,SBD,F,
Girls,75.07,3,Alejandra Villanueva,Junction,73.89,124.74,74.84,131.54,331.12,Single-ply,SBD,F,
Girls,75.07,4,Ivey Rodriguez,Ozona,68.04,127.01,63.5,113.4,303.91,Single-ply,SBD,F,
Girls,75.07,5,April Caldwell,Big Spring,69.26,108.86,65.77,113.4,288.03,Single-ply,SBD,F,
Girls,75.07,6,Adali Hernandez,Big Spring,68.49,117.93,52.16,113.4,283.5,Single-ply,SBD,F,
Girls,75.07,7,Jackie Myers,Miles,72.98,108.86,52.16,102.06,263.08,Single-ply,SBD,F,
Girls,75.07,8,Ebony DeLeon,Big Lake Reagan County,74.39,108.86,49.9,95.25,254.01,Single-ply,SBD,F,
Girls,75.07,9,Amaiya Hernandez,Big Spring,69.17,90.72,45.36,88.45,224.53,Single-ply,SBD,F,
Girls,75.07,10,Hana Kohutek,Miles,72.98,92.99,52.16,77.11,222.26,Single-ply,SBD,F,
Girls,75.07,11,Kylah Petralba,Iraan,68.63,74.84,38.56,83.91,197.31,Single-ply,SBD,F,
Girls,82.33,1,Yatzari Narvaez,Eldorado,75.16,226.8,122.47,165.56,514.83,Single-ply,SBD,F,
Girls,82.33,2,Xilanae Walker,Big Spring,81.47,127.01,92.99,136.08,356.07,Single-ply,SBD,F,
Girls,82.33,3,Suzie Rangel,Rocksprings,75.16,138.35,72.57,115.67,326.59,Single-ply,SBD,F,
Girls,82.33,4,Abewi Delgado,Big Spring,78.15,136.08,63.5,127.01,326.59,Single-ply,SBD,F,
Girls,82.33,5,Kayen Johnson,Big Spring,81.33,131.54,86.18,108.86,326.59,Single-ply,SBD,F,
Girls,82.33,6,Emily Sklenarik,Miles,80.42,124.74,68.04,120.2,312.98,Single-ply,SBD,F,
Girls,82.33,7,Valeria Rico,Big Lake Reagan County,79.38,127.01,63.5,115.67,306.17,Single-ply,SBD,F,
Girls,82.33,8,Annissa Gregory,Ozona,81.01,117.93,54.43,86.18,258.55,Single-ply,SBD,F,
Girls,90.04,1,Jadyn Martinez,Eldorado,84.41,124.74,56.7,127.01,308.44,Single-ply,SBD,F,
Girls,100.02,1,Rebecca Ruiz,Rocksprings,94.62,140.61,86.18,131.54,358.34,Single-ply,SBD,F,
Girls,100.02,2,Kayleigh Hernandez,Ozona,90.63,133.81,81.65,138.35,353.8,Single-ply,SBD,F,
Girls,100.02,3,Rebecca Rodriguez,Big Spring,99.02,149.69,56.7,140.61,347,Single-ply,SBD,F,
Girls,100.02,4,Addyson Ortiz,Ozona,92.17,138.35,54.43,108.86,301.64,Single-ply,SBD,F,
Girls,100.02,5,Vivica Munoz,Rocksprings,96.07,113.4,61.23,124.74,299.37,Single-ply,SBD,F,
Girls,117.71,1,Jhaniah Johnson,Big Spring,105.73,183.7,97.52,147.42,428.64,Single-ply,SBD,F,
Girls,117.71,2,Jacelyn Venegas,Rocksprings,100.56,117.93,61.23,117.93,297.1,Single-ply,SBD,F,
Girls,117.71+,1,Reagan Barrera,Ozona,117.84,161.03,77.11,140.61,378.75,Single-ply,SBD,F,
Girls,,NS,Mysti Mata,Ozona,,,,,,Single-ply,SBD,F,
Girls,,NS,Payton Branham,Miles,,,,,,Single-ply,SBD,F,
Girls,,NS,Charli Oglesby,Ozona,,,,,,Single-ply,SBD,F,
Girls,,NS,Ysabella Flores,Ozona,,,,,,Single-ply,SBD,F,
Girls,,NS,Jenifer Rios,Big Lake Reagan County,,,,,,Single-ply,SBD,F,
Girls,,NS,Lizbeth Hernandez,Big Lake Reagan County,,,,,,Single-ply,SBD,F,
Girls,,NS,Valeria Ortiz,Big Lake Reagan County,,,,,,Single-ply,SBD,F,
Girls,,NS,Alyzza Villareal,Big Lake Reagan County,,,,,,Single-ply,SBD,F,
Girls,,NS,Bella Glass,Big Lake Reagan County,,,,,,Single-ply,SBD,F,
Girls,,NS,Destine Romero,Big Lake Reagan County,,,,,,Single-ply,SBD,F,
